\select@language {english}
\contentsline {section}{License}{15}{chapter*.1}
\contentsline {section}{Preface}{21}{section*.2}
\contentsline {chapter}{\numberline {1}The Structure of the \textlatin {T\kern -.1667em\lower .5ex\hbox {E}\kern -.125emX\spacefactor \@m }\ Processor}{23}{chapter.1}
\contentsline {section}{\numberline {1.1}Four \textlatin {T\kern -.1667em\lower .5ex\hbox {E}\kern -.125emX\spacefactor \@m }\ processors}{23}{section.1.1}
\contentsline {section}{\numberline {1.2}The input processor}{24}{section.1.2}
\contentsline {subsection}{\numberline {1.2.1}Character input}{24}{subsection.1.2.1}
\contentsline {subsection}{\numberline {1.2.2}Two-level input processing}{24}{subsection.1.2.2}
\contentsline {section}{\numberline {1.3}The expansion processor}{25}{section.1.3}
\contentsline {subsection}{\numberline {1.3.1}The process of expansion}{25}{subsection.1.3.1}
\contentsline {subsection}{\numberline {1.3.2}Special cases: {\tt \char `\\expandafter}, {\tt \char `\\noexpand}, and {\tt \char `\\the}}{25}{subsection.1.3.2}
\contentsline {subsection}{\numberline {1.3.3}Braces in the expansion processor}{26}{subsection.1.3.3}
\contentsline {section}{\numberline {1.4}The execution processor}{26}{section.1.4}
\contentsline {section}{\numberline {1.5}The visual processor}{27}{section.1.5}
\contentsline {section}{\numberline {1.6}Examples}{28}{section.1.6}
\contentsline {subsection}{\numberline {1.6.1}Skipped spaces}{28}{subsection.1.6.1}
\contentsline {subsection}{\numberline {1.6.2}Internal quantities and their representations}{28}{subsection.1.6.2}
\contentsline {chapter}{\numberline {2}Category Codes and Internal States}{29}{chapter.2}
\contentsline {section}{\numberline {2.1}Introduction}{29}{section.2.1}
\contentsline {section}{\numberline {2.2}Initial processing}{29}{section.2.2}
\contentsline {section}{\numberline {2.3}Category codes}{30}{section.2.3}
\contentsline {section}{\numberline {2.4}From characters to tokens}{32}{section.2.4}
\contentsline {section}{\numberline {2.5}The input processor as a finite state automaton}{32}{section.2.5}
\contentsline {subsection}{\numberline {2.5.1}State {\it N}: new line}{32}{subsection.2.5.1}
\contentsline {subsection}{\numberline {2.5.2}State {\it S}: skipping spaces}{32}{subsection.2.5.2}
\contentsline {subsection}{\numberline {2.5.3}State {\it M}: middle of line}{32}{subsection.2.5.3}
\contentsline {section}{\numberline {2.6}Accessing the full character set}{33}{section.2.6}
\contentsline {section}{\numberline {2.7}Transitions between internal states}{33}{section.2.7}
\contentsline {subsection}{\numberline {2.7.1}0: escape character}{33}{subsection.2.7.1}
\contentsline {subsection}{\numberline {2.7.2}1--4, 7--8, 11--13: non-blank characters}{34}{subsection.2.7.2}
\contentsline {subsection}{\numberline {2.7.3}5: end of line}{34}{subsection.2.7.3}
\contentsline {subsection}{\numberline {2.7.4}6: parameter}{34}{subsection.2.7.4}
\contentsline {subsection}{\numberline {2.7.5}7: superscript}{34}{subsection.2.7.5}
\contentsline {subsection}{\numberline {2.7.6}9: ignored character}{34}{subsection.2.7.6}
\contentsline {subsection}{\numberline {2.7.7}10: space}{35}{subsection.2.7.7}
\contentsline {subsection}{\numberline {2.7.8}14: comment}{35}{subsection.2.7.8}
\contentsline {subsection}{\numberline {2.7.9}15: invalid}{35}{subsection.2.7.9}
\contentsline {section}{\numberline {2.8}Letters and other characters}{35}{section.2.8}
\contentsline {section}{\numberline {2.9}The \lowercase {{\tt \char 92par}} token}{36}{section.2.9}
\contentsline {section}{\numberline {2.10}Spaces}{37}{section.2.10}
\contentsline {subsection}{\numberline {2.10.1}Skipped spaces}{37}{subsection.2.10.1}
\contentsline {subsection}{\numberline {2.10.2}Optional spaces}{37}{subsection.2.10.2}
\contentsline {subsection}{\numberline {2.10.3}Ignored and obeyed spaces}{38}{subsection.2.10.3}
\contentsline {subsection}{\numberline {2.10.4}More ignored spaces}{38}{subsection.2.10.4}
\contentsline {subsection}{\numberline {2.10.5}$\delimiter "426830A $space token$\delimiter "526930B $}{39}{subsection.2.10.5}
\contentsline {subsection}{\numberline {2.10.6}Control space}{39}{subsection.2.10.6}
\contentsline {subsection}{\numberline {2.10.7}`{\tt \char 32}'}{39}{subsection.2.10.7}
\contentsline {section}{\numberline {2.11}More about line ends}{40}{section.2.11}
\contentsline {subsection}{\numberline {2.11.1}Obeylines}{40}{subsection.2.11.1}
\contentsline {subsection}{\numberline {2.11.2}Changing the {\tt \char `\\endlinechar}}{40}{subsection.2.11.2}
\contentsline {subsection}{\numberline {2.11.3}More remarks about the end-of-line character}{41}{subsection.2.11.3}
\contentsline {section}{\numberline {2.12}More about the input processor}{41}{section.2.12}
\contentsline {subsection}{\numberline {2.12.1}The input processor as a separate process}{41}{subsection.2.12.1}
\contentsline {subsection}{\numberline {2.12.2}The input processor not as a separate process}{42}{subsection.2.12.2}
\contentsline {subsection}{\numberline {2.12.3}Recursive invocation of the input processor}{42}{subsection.2.12.3}
\contentsline {section}{\numberline {2.13}The {\tt @} convention}{43}{section.2.13}
\contentsline {chapter}{\numberline {3}Characters}{45}{chapter.3}
\contentsline {section}{\numberline {3.1}Character codes}{45}{section.3.1}
\contentsline {section}{\numberline {3.2}Control sequences for characters}{46}{section.3.2}
\contentsline {section}{\numberline {3.3}Denoting characters to be typeset: \cs {char}}{46}{section.3.3}
\contentsline {subsection}{\numberline {3.3.1}Implicit character tokens: \cs {let}}{47}{subsection.3.3.1}
\contentsline {section}{\numberline {3.4}Accents}{48}{section.3.4}
\contentsline {section}{\numberline {3.5}Testing characters}{49}{section.3.5}
\contentsline {section}{\numberline {3.6}Uppercase and lowercase}{50}{section.3.6}
\contentsline {subsection}{\numberline {3.6.1}Uppercase and lowercase codes}{50}{subsection.3.6.1}
\contentsline {subsection}{\numberline {3.6.2}Uppercase and lowercase commands}{50}{subsection.3.6.2}
\contentsline {subsection}{\numberline {3.6.3}Uppercase and lowercase forms of keywords}{50}{subsection.3.6.3}
\contentsline {subsection}{\numberline {3.6.4}Creative use of {\tt \char `\\uppercase} and {\tt \char `\\lowercase}}{51}{subsection.3.6.4}
\contentsline {section}{\numberline {3.7}Codes of a character}{51}{section.3.7}
\contentsline {section}{\numberline {3.8}Converting tokens into character strings}{51}{section.3.8}
\contentsline {subsection}{\numberline {3.8.1}Output of control sequences}{52}{subsection.3.8.1}
\contentsline {subsection}{\numberline {3.8.2}Category codes of a {\tt \char `\\string}}{52}{subsection.3.8.2}
\contentsline {chapter}{\numberline {4}Fonts}{53}{chapter.4}
\contentsline {section}{\numberline {4.1}Fonts}{53}{section.4.1}
\contentsline {section}{\numberline {4.2}Font declaration}{54}{section.4.2}
\contentsline {subsection}{\numberline {4.2.1}Fonts and {\tt tfm} files}{54}{subsection.4.2.1}
\contentsline {subsection}{\numberline {4.2.2}Querying the current font and font names}{54}{subsection.4.2.2}
\contentsline {subsection}{\numberline {4.2.3}{\tt \char `\\nullfont}}{55}{subsection.4.2.3}
\contentsline {section}{\numberline {4.3}Font information}{55}{section.4.3}
\contentsline {subsection}{\numberline {4.3.1}Font dimensions}{55}{subsection.4.3.1}
\contentsline {subsection}{\numberline {4.3.2}Kerning}{56}{subsection.4.3.2}
\contentsline {subsection}{\numberline {4.3.3}Italic correction}{56}{subsection.4.3.3}
\contentsline {subsection}{\numberline {4.3.4}Ligatures}{57}{subsection.4.3.4}
\contentsline {subsection}{\numberline {4.3.5}Boundary ligatures}{57}{subsection.4.3.5}
\contentsline {chapter}{\numberline {5}Boxes}{59}{chapter.5}
\contentsline {section}{\numberline {5.1}Boxes}{60}{section.5.1}
\contentsline {section}{\numberline {5.2}Box registers}{60}{section.5.2}
\contentsline {subsection}{\numberline {5.2.1}Allocation: {\tt \char `\\newbox}}{60}{subsection.5.2.1}
\contentsline {subsection}{\numberline {5.2.2}Usage: {\tt \char `\\setbox}, {\tt \char `\\box}, {\tt \char `\\copy}}{61}{subsection.5.2.2}
\contentsline {subsection}{\numberline {5.2.3}Testing: {\tt \char `\\ifvoid}, {\tt \char `\\ifhbox}, {\tt \char `\\ifvbox}}{61}{subsection.5.2.3}
\contentsline {subsection}{\numberline {5.2.4}The {\tt \char `\\lastbox}}{61}{subsection.5.2.4}
\contentsline {section}{\numberline {5.3}Natural dimensions of boxes}{62}{section.5.3}
\contentsline {subsection}{\numberline {5.3.1}Dimensions of created horizontal boxes}{62}{subsection.5.3.1}
\contentsline {subsection}{\numberline {5.3.2}Dimensions of created vertical boxes}{62}{subsection.5.3.2}
\contentsline {subsection}{\numberline {5.3.3}Examples}{63}{subsection.5.3.3}
\contentsline {section}{\numberline {5.4}More about box dimensions}{64}{section.5.4}
\contentsline {subsection}{\numberline {5.4.1}Predetermined dimensions}{64}{subsection.5.4.1}
\contentsline {subsection}{\numberline {5.4.2}Changes to box dimensions}{65}{subsection.5.4.2}
\contentsline {subsection}{\numberline {5.4.3}Moving boxes around}{65}{subsection.5.4.3}
\contentsline {subsection}{\numberline {5.4.4}Box dimensions and box placement}{65}{subsection.5.4.4}
\contentsline {subsection}{\numberline {5.4.5}Boxes and negative glue}{66}{subsection.5.4.5}
\contentsline {section}{\numberline {5.5}Overfull and underfull boxes}{67}{section.5.5}
\contentsline {section}{\numberline {5.6}Opening and closing boxes}{67}{section.5.6}
\contentsline {section}{\numberline {5.7}Unboxing}{68}{section.5.7}
\contentsline {section}{\numberline {5.8}Text in boxes}{69}{section.5.8}
\contentsline {section}{\numberline {5.9}Assorted remarks}{70}{section.5.9}
\contentsline {subsection}{\numberline {5.9.1}Forgetting the {\tt \char `\\box}}{70}{subsection.5.9.1}
\contentsline {subsection}{\numberline {5.9.2}Special-purpose boxes}{70}{subsection.5.9.2}
\contentsline {subsection}{\numberline {5.9.3}The height of a vertical box in horizontal mode}{70}{subsection.5.9.3}
\contentsline {subsection}{\numberline {5.9.4}More subtleties with vertical boxes}{70}{subsection.5.9.4}
\contentsline {subsection}{\numberline {5.9.5}Hanging the {\tt \char `\\lastbox} back in the list}{71}{subsection.5.9.5}
\contentsline {subsection}{\numberline {5.9.6}Dissecting paragraphs with {\tt \char `\\lastbox}}{72}{subsection.5.9.6}
\contentsline {chapter}{\numberline {6}Horizontal and Vertical Mode}{73}{chapter.6}
\contentsline {section}{\numberline {6.1}Horizontal and vertical mode}{73}{section.6.1}
\contentsline {subsection}{\numberline {6.1.1}Horizontal mode}{73}{subsection.6.1.1}
\contentsline {subsection}{\numberline {6.1.2}Vertical mode}{74}{subsection.6.1.2}
\contentsline {section}{\numberline {6.2}Horizontal and vertical commands}{74}{section.6.2}
\contentsline {section}{\numberline {6.3}The internal modes}{75}{section.6.3}
\contentsline {subsection}{\numberline {6.3.1}Restricted horizontal mode}{75}{subsection.6.3.1}
\contentsline {subsection}{\numberline {6.3.2}Internal vertical mode}{75}{subsection.6.3.2}
\contentsline {section}{\numberline {6.4}Boxes and modes}{76}{section.6.4}
\contentsline {subsection}{\numberline {6.4.1}What box do you use in what mode?}{76}{subsection.6.4.1}
\contentsline {subsection}{\numberline {6.4.2}What mode holds in what box?}{76}{subsection.6.4.2}
\contentsline {subsection}{\numberline {6.4.3}Mode-dependent behaviour of boxes}{76}{subsection.6.4.3}
\contentsline {section}{\numberline {6.5}Modes and glue}{76}{section.6.5}
\contentsline {section}{\numberline {6.6}Migrating material}{77}{section.6.6}
\contentsline {subsection}{\numberline {6.6.1}{\tt \char `\\vadjust}}{77}{subsection.6.6.1}
\contentsline {section}{\numberline {6.7}Testing modes}{77}{section.6.7}
\contentsline {chapter}{\numberline {7}Numbers}{79}{chapter.7}
\contentsline {section}{\numberline {7.1}Numbers and $\delimiter "426830A $number$\delimiter "526930B $s}{79}{section.7.1}
\contentsline {section}{\numberline {7.2}Integers}{79}{section.7.2}
\contentsline {subsection}{\numberline {7.2.1}Denotations: integers}{80}{subsection.7.2.1}
\contentsline {subsection}{\numberline {7.2.2}Denotations: characters}{80}{subsection.7.2.2}
\contentsline {subsection}{\numberline {7.2.3}Internal integers}{81}{subsection.7.2.3}
\contentsline {subsection}{\numberline {7.2.4}Internal integers: other codes of a character}{82}{subsection.7.2.4}
\contentsline {subsection}{\numberline {7.2.5}$\delimiter "426830A $special integer$\delimiter "526930B $}{82}{subsection.7.2.5}
\contentsline {subsection}{\numberline {7.2.6}Other internal quantities: coersion to integer}{82}{subsection.7.2.6}
\contentsline {subsection}{\numberline {7.2.7}Trailing spaces}{82}{subsection.7.2.7}
\contentsline {section}{\numberline {7.3}Numbers}{82}{section.7.3}
\contentsline {section}{\numberline {7.4}Integer registers}{83}{section.7.4}
\contentsline {section}{\numberline {7.5}Arithmetic}{83}{section.7.5}
\contentsline {subsection}{\numberline {7.5.1}Arithmetic statements}{84}{subsection.7.5.1}
\contentsline {subsection}{\numberline {7.5.2}Floating-point arithmetic}{84}{subsection.7.5.2}
\contentsline {subsection}{\numberline {7.5.3}Fixed-point arithmetic}{84}{subsection.7.5.3}
\contentsline {section}{\numberline {7.6}Number testing}{84}{section.7.6}
\contentsline {section}{\numberline {7.7}Remarks}{85}{section.7.7}
\contentsline {subsection}{\numberline {7.7.1}Character constants}{85}{subsection.7.7.1}
\contentsline {subsection}{\numberline {7.7.2}Expanding too far / how far}{85}{subsection.7.7.2}
\contentsline {chapter}{\numberline {8}Dimensions and Glue}{87}{chapter.8}
\contentsline {section}{\numberline {8.1}Definition of $\delimiter "426830A $glue$\delimiter "526930B $ and $\delimiter "426830A $dimen$\delimiter "526930B $}{88}{section.8.1}
\contentsline {subsection}{\numberline {8.1.1}Definition of dimensions}{88}{subsection.8.1.1}
\contentsline {subsection}{\numberline {8.1.2}Definition of glue}{89}{subsection.8.1.2}
\contentsline {subsection}{\numberline {8.1.3}Conversion of $\delimiter "426830A $glue$\delimiter "526930B $ to $\delimiter "426830A $dimen$\delimiter "526930B $}{90}{subsection.8.1.3}
\contentsline {subsection}{\numberline {8.1.4}Registers for {\tt \char `\\dimen} and {\tt \char `\\skip}}{90}{subsection.8.1.4}
\contentsline {subsection}{\numberline {8.1.5}Arithmetic: addition}{90}{subsection.8.1.5}
\contentsline {subsection}{\numberline {8.1.6}Arithmetic: multiplication and division}{91}{subsection.8.1.6}
\contentsline {section}{\numberline {8.2}More about dimensions}{91}{section.8.2}
\contentsline {subsection}{\numberline {8.2.1}Units of measurement}{91}{subsection.8.2.1}
\contentsline {subsection}{\numberline {8.2.2}Dimension testing}{92}{subsection.8.2.2}
\contentsline {subsection}{\numberline {8.2.3}Defined dimensions}{92}{subsection.8.2.3}
\contentsline {section}{\numberline {8.3}More about glue}{92}{section.8.3}
\contentsline {subsection}{\numberline {8.3.1}Stretch and shrink}{93}{subsection.8.3.1}
\contentsline {subsection}{\numberline {8.3.2}Glue setting}{94}{subsection.8.3.2}
\contentsline {subsection}{\numberline {8.3.3}Badness}{94}{subsection.8.3.3}
\contentsline {subsection}{\numberline {8.3.4}Glue and breaking}{95}{subsection.8.3.4}
\contentsline {subsection}{\numberline {8.3.5}{\tt \char `\\kern}}{95}{subsection.8.3.5}
\contentsline {subsection}{\numberline {8.3.6}Glue and modes}{95}{subsection.8.3.6}
\contentsline {subsection}{\numberline {8.3.7}The last glue item in a list: backspacing}{95}{subsection.8.3.7}
\contentsline {subsection}{\numberline {8.3.8}Examples of backspacing}{96}{subsection.8.3.8}
\contentsline {subsection}{\numberline {8.3.9}Glue in trace output}{96}{subsection.8.3.9}
\contentsline {chapter}{\numberline {9}Rules and Leaders}{99}{chapter.9}
\contentsline {section}{\numberline {9.1}Rules}{99}{section.9.1}
\contentsline {subsection}{\numberline {9.1.1}Rule dimensions}{100}{subsection.9.1.1}
\contentsline {section}{\numberline {9.2}Leaders}{100}{section.9.2}
\contentsline {subsection}{\numberline {9.2.1}Rule leaders}{101}{subsection.9.2.1}
\contentsline {subsection}{\numberline {9.2.2}Box leaders}{102}{subsection.9.2.2}
\contentsline {subsection}{\numberline {9.2.3}Evenly spaced leaders}{102}{subsection.9.2.3}
\contentsline {section}{\numberline {9.3}Assorted remarks}{103}{section.9.3}
\contentsline {subsection}{\numberline {9.3.1}Rules and modes}{103}{subsection.9.3.1}
\contentsline {subsection}{\numberline {9.3.2}Ending a paragraph with leaders}{103}{subsection.9.3.2}
\contentsline {subsection}{\numberline {9.3.3}Leaders and box registers}{103}{subsection.9.3.3}
\contentsline {subsection}{\numberline {9.3.4}Output in leader boxes}{104}{subsection.9.3.4}
\contentsline {subsection}{\numberline {9.3.5}Box leaders in trace output}{104}{subsection.9.3.5}
\contentsline {subsection}{\numberline {9.3.6}Leaders and shifted margins}{104}{subsection.9.3.6}
\contentsline {chapter}{\numberline {10}Grouping}{105}{chapter.10}
\contentsline {section}{\numberline {10.1}The grouping mechanism}{105}{section.10.1}
\contentsline {section}{\numberline {10.2}Local and global assignments}{106}{section.10.2}
\contentsline {section}{\numberline {10.3}Group delimiters}{106}{section.10.3}
\contentsline {section}{\numberline {10.4}More about braces}{107}{section.10.4}
\contentsline {subsection}{\numberline {10.4.1}Brace counters}{107}{subsection.10.4.1}
\contentsline {subsection}{\numberline {10.4.2}The brace as a token}{108}{subsection.10.4.2}
\contentsline {subsection}{\numberline {10.4.3}Open and closing brace control symbols}{108}{subsection.10.4.3}
\contentsline {chapter}{\numberline {11}Macros}{109}{chapter.11}
\contentsline {section}{\numberline {11.1}Introduction}{109}{section.11.1}
\contentsline {section}{\numberline {11.2}Layout of a macro definition}{110}{section.11.2}
\contentsline {section}{\numberline {11.3}Prefixes}{110}{section.11.3}
\contentsline {section}{\numberline {11.4}The definition type}{111}{section.11.4}
\contentsline {section}{\numberline {11.5}The parameter text}{111}{section.11.5}
\contentsline {subsection}{\numberline {11.5.1}Undelimited parameters}{112}{subsection.11.5.1}
\contentsline {subsection}{\numberline {11.5.2}Delimited parameters}{112}{subsection.11.5.2}
\contentsline {subsection}{\numberline {11.5.3}Examples with delimited arguments}{113}{subsection.11.5.3}
\contentsline {subsection}{\numberline {11.5.4}Empty arguments}{114}{subsection.11.5.4}
\contentsline {subsection}{\numberline {11.5.5}The macro parameter character}{114}{subsection.11.5.5}
\contentsline {subsection}{\numberline {11.5.6}Brace delimiting}{115}{subsection.11.5.6}
\contentsline {section}{\numberline {11.6}Construction of control sequences}{115}{section.11.6}
\contentsline {section}{\numberline {11.7}Token assignments by \cs {let} and \cs {futurelet}}{116}{section.11.7}
\contentsline {subsection}{\numberline {11.7.1}\cs {let}}{116}{subsection.11.7.1}
\contentsline {subsection}{\numberline {11.7.2}\cs {futurelet}}{117}{subsection.11.7.2}
\contentsline {section}{\numberline {11.8}Assorted remarks}{117}{section.11.8}
\contentsline {subsection}{\numberline {11.8.1}Active characters}{117}{subsection.11.8.1}
\contentsline {subsection}{\numberline {11.8.2}Macros versus primitives}{117}{subsection.11.8.2}
\contentsline {subsection}{\numberline {11.8.3}Tail recursion}{118}{subsection.11.8.3}
\contentsline {section}{\numberline {11.9}Macro techniques}{119}{section.11.9}
\contentsline {subsection}{\numberline {11.9.1}Unknown number of arguments}{119}{subsection.11.9.1}
\contentsline {subsection}{\numberline {11.9.2}Examining the argument}{119}{subsection.11.9.2}
\contentsline {subsection}{\numberline {11.9.3}Optional macro parameters with \cs {futurelet}}{121}{subsection.11.9.3}
\contentsline {subsection}{\numberline {11.9.4}Two-step macros}{121}{subsection.11.9.4}
\contentsline {subsection}{\numberline {11.9.5}A comment environment}{122}{subsection.11.9.5}
\contentsline {chapter}{\numberline {12}Expansion}{125}{chapter.12}
\contentsline {section}{\numberline {12.1}Introduction}{125}{section.12.1}
\contentsline {section}{\numberline {12.2}Ordinary expansion}{125}{section.12.2}
\contentsline {section}{\numberline {12.3}Reversing expansion order}{126}{section.12.3}
\contentsline {subsection}{\numberline {12.3.1}One step expansion: \cs {expandafter}}{126}{subsection.12.3.1}
\contentsline {subsection}{\numberline {12.3.2}Total expansion: \cs {edef}}{127}{subsection.12.3.2}
\contentsline {subsection}{\numberline {12.3.3}\cs {afterassignment}}{127}{subsection.12.3.3}
\contentsline {subsection}{\numberline {12.3.4}\cs {aftergroup}}{128}{subsection.12.3.4}
\contentsline {section}{\numberline {12.4}Preventing expansion}{129}{section.12.4}
\contentsline {subsection}{\numberline {12.4.1}\cs {noexpand}}{129}{subsection.12.4.1}
\contentsline {subsection}{\numberline {12.4.2}\cs {noexpand} and active characters}{129}{subsection.12.4.2}
\contentsline {section}{\numberline {12.5}\cs {relax}}{130}{section.12.5}
\contentsline {subsection}{\numberline {12.5.1}{\tt \char `\\relax} and {\tt \char `\\csname}}{130}{subsection.12.5.1}
\contentsline {subsection}{\numberline {12.5.2}Preventing expansion with {\tt \char `\\relax}}{131}{subsection.12.5.2}
\contentsline {subsection}{\numberline {12.5.3}\textlatin {T\kern -.1667em\lower .5ex\hbox {E}\kern -.125emX\spacefactor \@m }\ inserts a {\tt \char `\\relax}}{131}{subsection.12.5.3}
\contentsline {subsection}{\numberline {12.5.4}The value of non-macros; {\tt \char `\\the}}{132}{subsection.12.5.4}
\contentsline {section}{\numberline {12.6}Examples}{132}{section.12.6}
\contentsline {subsection}{\numberline {12.6.1}Expanding after}{132}{subsection.12.6.1}
\contentsline {subsection}{\numberline {12.6.2}Defining inside an {\tt \char `\\edef}}{133}{subsection.12.6.2}
\contentsline {subsection}{\numberline {12.6.3}Expansion and {\tt \char `\\write}}{134}{subsection.12.6.3}
\contentsline {subsection}{\numberline {12.6.4}Controlled expansion inside an {\tt \char `\\edef}}{135}{subsection.12.6.4}
\contentsline {subsection}{\numberline {12.6.5}Multiple prevention of expansion}{135}{subsection.12.6.5}
\contentsline {subsection}{\numberline {12.6.6}More examples with {\tt \char `\\relax}}{136}{subsection.12.6.6}
\contentsline {subsection}{\numberline {12.6.7}Example: category code saving and restoring}{136}{subsection.12.6.7}
\contentsline {subsection}{\numberline {12.6.8}Combining {\tt \char `\\aftergroup} and boxes}{137}{subsection.12.6.8}
\contentsline {subsection}{\numberline {12.6.9}More expansion}{138}{subsection.12.6.9}
\contentsline {chapter}{\numberline {13}Conditionals}{139}{chapter.13}
\contentsline {section}{\numberline {13.1}The shape of conditionals}{139}{section.13.1}
\contentsline {section}{\numberline {13.2}Character and control sequence tests}{140}{section.13.2}
\contentsline {subsection}{\numberline {13.2.1}{\tt \char `\\if}}{140}{subsection.13.2.1}
\contentsline {subsection}{\numberline {13.2.2}{\tt \char `\\ifcat}}{140}{subsection.13.2.2}
\contentsline {subsection}{\numberline {13.2.3}\cs {ifx}}{141}{subsection.13.2.3}
\contentsline {section}{\numberline {13.3}Mode tests}{141}{section.13.3}
\contentsline {section}{\numberline {13.4}Numerical tests}{142}{section.13.4}
\contentsline {section}{\numberline {13.5}Other tests}{142}{section.13.5}
\contentsline {subsection}{\numberline {13.5.1}Dimension testing}{142}{subsection.13.5.1}
\contentsline {subsection}{\numberline {13.5.2}Box tests}{142}{subsection.13.5.2}
\contentsline {subsection}{\numberline {13.5.3}I{/}O tests}{142}{subsection.13.5.3}
\contentsline {subsection}{\numberline {13.5.4}Case statement}{142}{subsection.13.5.4}
\contentsline {subsection}{\numberline {13.5.5}Special tests}{143}{subsection.13.5.5}
\contentsline {section}{\numberline {13.6}The \cs {newif} macro}{143}{section.13.6}
\contentsline {section}{\numberline {13.7}Evaluation of conditionals}{144}{section.13.7}
\contentsline {section}{\numberline {13.8}Assorted remarks}{145}{section.13.8}
\contentsline {subsection}{\numberline {13.8.1}The test gobbles up tokens}{145}{subsection.13.8.1}
\contentsline {subsection}{\numberline {13.8.2}The test wants to gobble up the {\tt \char `\\else} or {\tt \char `\\fi}}{145}{subsection.13.8.2}
\contentsline {subsection}{\numberline {13.8.3}Macros and conditionals; the use of {\tt \char `\\expandafter}}{146}{subsection.13.8.3}
\contentsline {subsection}{\numberline {13.8.4}Incorrect matching}{147}{subsection.13.8.4}
\contentsline {subsection}{\numberline {13.8.5}Conditionals and grouping}{147}{subsection.13.8.5}
\contentsline {subsection}{\numberline {13.8.6}A trick}{148}{subsection.13.8.6}
\contentsline {subsection}{\numberline {13.8.7}More examples of expansion in conditionals}{148}{subsection.13.8.7}
\contentsline {chapter}{\numberline {14}Token Lists}{151}{chapter.14}
\contentsline {section}{\numberline {14.1}Token lists}{151}{section.14.1}
\contentsline {section}{\numberline {14.2}Use of token lists}{151}{section.14.2}
\contentsline {section}{\numberline {14.3}$\delimiter "426830A $token parameter$\delimiter "526930B $}{152}{section.14.3}
\contentsline {section}{\numberline {14.4}Token list registers}{152}{section.14.4}
\contentsline {section}{\numberline {14.5}Examples}{153}{section.14.5}
\contentsline {subsection}{\numberline {14.5.1}Operations on token lists: stack macros}{153}{subsection.14.5.1}
\contentsline {subsection}{\numberline {14.5.2}Executing token lists}{154}{subsection.14.5.2}
\contentsline {chapter}{\numberline {15}Baseline Distances}{155}{chapter.15}
\contentsline {section}{\numberline {15.1}Interline glue}{155}{section.15.1}
\contentsline {section}{\numberline {15.2}The perceived depth of boxes}{157}{section.15.2}
\contentsline {section}{\numberline {15.3}Terminology}{158}{section.15.3}
\contentsline {section}{\numberline {15.4}Additional remarks}{158}{section.15.4}
\contentsline {chapter}{\numberline {16}Paragraph Start}{159}{chapter.16}
\contentsline {section}{\numberline {16.1}When does a paragraph start}{159}{section.16.1}
\contentsline {section}{\numberline {16.2}What happens when a paragraph starts}{160}{section.16.2}
\contentsline {section}{\numberline {16.3}Assorted remarks}{160}{section.16.3}
\contentsline {subsection}{\numberline {16.3.1}Starting a paragraph with a box}{160}{subsection.16.3.1}
\contentsline {subsection}{\numberline {16.3.2}Starting a paragraph with a group}{160}{subsection.16.3.2}
\contentsline {section}{\numberline {16.4}Examples}{161}{section.16.4}
\contentsline {subsection}{\numberline {16.4.1}Stretchable indentation }{161}{subsection.16.4.1}
\contentsline {subsection}{\numberline {16.4.2}Suppressing indentation}{161}{subsection.16.4.2}
\contentsline {subsection}{\numberline {16.4.3}An indentation scheme}{161}{subsection.16.4.3}
\contentsline {subsection}{\numberline {16.4.4}A paragraph skip scheme}{162}{subsection.16.4.4}
\contentsline {chapter}{\numberline {17}Paragraph End}{165}{chapter.17}
\contentsline {section}{\numberline {17.1}The way paragraphs end}{165}{section.17.1}
\contentsline {subsection}{\numberline {17.1.1}The {\tt \char `\\par} command and the {\tt \char `\\par} token}{165}{subsection.17.1.1}
\contentsline {subsection}{\numberline {17.1.2}Paragraph filling: {\tt \char `\\parfillskip}}{166}{subsection.17.1.2}
\contentsline {section}{\numberline {17.2}Assorted remarks}{166}{section.17.2}
\contentsline {subsection}{\numberline {17.2.1}Ending a paragraph and a group at the same time}{166}{subsection.17.2.1}
\contentsline {subsection}{\numberline {17.2.2}Ending a paragraph with {\tt \char `\\hfill}{\tt \char `\\break}}{167}{subsection.17.2.2}
\contentsline {subsection}{\numberline {17.2.3}Ending a paragraph with a rule}{167}{subsection.17.2.3}
\contentsline {subsection}{\numberline {17.2.4}No page breaks in between paragraphs}{167}{subsection.17.2.4}
\contentsline {subsection}{\numberline {17.2.5}Finite {\tt \char `\\parfillskip}}{167}{subsection.17.2.5}
\contentsline {subsection}{\numberline {17.2.6}A precaution for paragraphs that do not indent}{168}{subsection.17.2.6}
\contentsline {chapter}{\numberline {18}Paragraph Shape}{169}{chapter.18}
\contentsline {section}{\numberline {18.1}The width of text lines}{170}{section.18.1}
\contentsline {section}{\numberline {18.2}Shape parameters}{170}{section.18.2}
\contentsline {subsection}{\numberline {18.2.1}Hanging indentation}{170}{subsection.18.2.1}
\contentsline {subsection}{\numberline {18.2.2}General paragraph shapes: {\tt \char `\\parshape}}{171}{subsection.18.2.2}
\contentsline {section}{\numberline {18.3}Assorted remarks}{171}{section.18.3}
\contentsline {subsection}{\numberline {18.3.1}Centred last lines}{171}{subsection.18.3.1}
\contentsline {subsection}{\numberline {18.3.2}Indenting into the margin}{172}{subsection.18.3.2}
\contentsline {subsection}{\numberline {18.3.3}Hang a paragraph from an object}{172}{subsection.18.3.3}
\contentsline {subsection}{\numberline {18.3.4}Another approach to hanging indentation}{173}{subsection.18.3.4}
\contentsline {subsection}{\numberline {18.3.5}Hanging indentation versus {\tt \char `\\leftskip} shifting}{173}{subsection.18.3.5}
\contentsline {subsection}{\numberline {18.3.6}More examples}{174}{subsection.18.3.6}
\contentsline {chapter}{\numberline {19}Line Breaking}{175}{chapter.19}
\contentsline {section}{\numberline {19.1}Paragraph break cost calculation}{176}{section.19.1}
\contentsline {subsection}{\numberline {19.1.1}Badness}{176}{subsection.19.1.1}
\contentsline {subsection}{\numberline {19.1.2}Penalties and other break locations}{177}{subsection.19.1.2}
\contentsline {subsection}{\numberline {19.1.3}Demerits}{177}{subsection.19.1.3}
\contentsline {subsection}{\numberline {19.1.4}The number of lines of a paragraph}{178}{subsection.19.1.4}
\contentsline {subsection}{\numberline {19.1.5}Between the lines}{178}{subsection.19.1.5}
\contentsline {section}{\numberline {19.2}The process of breaking}{178}{section.19.2}
\contentsline {subsection}{\numberline {19.2.1}Three passes}{179}{subsection.19.2.1}
\contentsline {subsection}{\numberline {19.2.2}Tolerance values}{179}{subsection.19.2.2}
\contentsline {section}{\numberline {19.3}Discretionaries}{179}{section.19.3}
\contentsline {subsection}{\numberline {19.3.1}Hyphens and discretionaries}{179}{subsection.19.3.1}
\contentsline {subsection}{\numberline {19.3.2}Examples of discretionaries}{180}{subsection.19.3.2}
\contentsline {section}{\numberline {19.4}Hyphenation}{181}{section.19.4}
\contentsline {subsection}{\numberline {19.4.1}Start of a word}{181}{subsection.19.4.1}
\contentsline {subsection}{\numberline {19.4.2}End of a word}{181}{subsection.19.4.2}
\contentsline {subsection}{\numberline {19.4.3}\textlatin {T\kern -.1667em\lower .5ex\hbox {E}\kern -.125emX\spacefactor \@m }2 versus \textlatin {T\kern -.1667em\lower .5ex\hbox {E}\kern -.125emX\spacefactor \@m }3}{182}{subsection.19.4.3}
\contentsline {subsection}{\numberline {19.4.4}Patterns and exceptions}{182}{subsection.19.4.4}
\contentsline {section}{\numberline {19.5}Switching hyphenation patterns}{182}{section.19.5}
\contentsline {chapter}{\numberline {20}Spacing}{185}{chapter.20}
\contentsline {section}{\numberline {20.1}Introduction}{185}{section.20.1}
\contentsline {section}{\numberline {20.2}Automatic interword space}{185}{section.20.2}
\contentsline {section}{\numberline {20.3}User interword space}{186}{section.20.3}
\contentsline {section}{\numberline {20.4}Control space and tie}{187}{section.20.4}
\contentsline {section}{\numberline {20.5}More on the space factor}{188}{section.20.5}
\contentsline {subsection}{\numberline {20.5.1}Space factor assignments}{188}{subsection.20.5.1}
\contentsline {subsection}{\numberline {20.5.2}Punctuation}{188}{subsection.20.5.2}
\contentsline {subsection}{\numberline {20.5.3}Other non-letters}{189}{subsection.20.5.3}
\contentsline {subsection}{\numberline {20.5.4}Other influences on the space factor}{189}{subsection.20.5.4}
\contentsline {chapter}{\numberline {21}Characters in Math Mode}{191}{chapter.21}
\contentsline {section}{\numberline {21.1}Mathematical characters}{192}{section.21.1}
\contentsline {section}{\numberline {21.2}Delimiters}{192}{section.21.2}
\contentsline {subsection}{\numberline {21.2.1}Delimiter codes }{193}{subsection.21.2.1}
\contentsline {subsection}{\numberline {21.2.2}Explicit {\tt \char `\\delimiter} commands}{193}{subsection.21.2.2}
\contentsline {subsection}{\numberline {21.2.3}Finding a delimiter; successors}{193}{subsection.21.2.3}
\contentsline {subsection}{\numberline {21.2.4}{\tt \char `\\big}, {\tt \char `\\Big}, {\tt \char `\\bigg}, and {\tt \char `\\Bigg} delimiter macros}{194}{subsection.21.2.4}
\contentsline {section}{\numberline {21.3}Radicals}{194}{section.21.3}
\contentsline {section}{\numberline {21.4}Math accents}{195}{section.21.4}
\contentsline {chapter}{\numberline {22}Fonts in Formulas}{197}{chapter.22}
\contentsline {section}{\numberline {22.1}Determining the font of a character in math mode}{197}{section.22.1}
\contentsline {section}{\numberline {22.2}Initial family settings}{198}{section.22.2}
\contentsline {section}{\numberline {22.3}Family definition}{198}{section.22.3}
\contentsline {section}{\numberline {22.4}Some specific font changes}{198}{section.22.4}
\contentsline {subsection}{\numberline {22.4.1}Change the font of ordinary characters and uppercase Greek}{198}{subsection.22.4.1}
\contentsline {subsection}{\numberline {22.4.2}Change uppercase Greek independent of text font}{199}{subsection.22.4.2}
\contentsline {subsection}{\numberline {22.4.3}Change the font of lowercase Greek and mathematical symbols}{199}{subsection.22.4.3}
\contentsline {section}{\numberline {22.5}Assorted remarks}{199}{section.22.5}
\contentsline {subsection}{\numberline {22.5.1}New fonts in formulas}{199}{subsection.22.5.1}
\contentsline {subsection}{\numberline {22.5.2}Evaluating the families}{200}{subsection.22.5.2}
\contentsline {chapter}{\numberline {23}Mathematics Typesetting}{201}{chapter.23}
\contentsline {section}{\numberline {23.1}Math modes}{202}{section.23.1}
\contentsline {section}{\numberline {23.2}Styles in math mode}{202}{section.23.2}
\contentsline {subsection}{\numberline {23.2.1}Superscripts and subscripts}{203}{subsection.23.2.1}
\contentsline {subsection}{\numberline {23.2.2}Choice of styles}{203}{subsection.23.2.2}
\contentsline {section}{\numberline {23.3}Classes of mathematical objects}{204}{section.23.3}
\contentsline {section}{\numberline {23.4}Large operators and their limits}{204}{section.23.4}
\contentsline {section}{\numberline {23.5}Vertical centring: \cs {vcenter}}{205}{section.23.5}
\contentsline {section}{\numberline {23.6}Mathematical spacing: {\tt mu} glue}{205}{section.23.6}
\contentsline {subsection}{\numberline {23.6.1}Classification of {\tt mu} glue}{206}{subsection.23.6.1}
\contentsline {subsection}{\numberline {23.6.2}Muskip registers}{206}{subsection.23.6.2}
\contentsline {subsection}{\numberline {23.6.3}Other spaces in math mode}{207}{subsection.23.6.3}
\contentsline {section}{\numberline {23.7}Generalized fractions}{207}{section.23.7}
\contentsline {section}{\numberline {23.8}Underlining, overlining}{208}{section.23.8}
\contentsline {section}{\numberline {23.9}Line breaking in math formulas}{208}{section.23.9}
\contentsline {section}{\numberline {23.10}Font dimensions of families 2 and 3}{208}{section.23.10}
\contentsline {subsection}{\numberline {23.10.1}Symbol font attributes}{208}{subsection.23.10.1}
\contentsline {subsection}{\numberline {23.10.2}Extension font attributes}{209}{subsection.23.10.2}
\contentsline {subsection}{\numberline {23.10.3}Example: subscript lowering}{210}{subsection.23.10.3}
\contentsline {chapter}{\numberline {24}Display Math}{211}{chapter.24}
\contentsline {section}{\numberline {24.1}Displays}{211}{section.24.1}
\contentsline {section}{\numberline {24.2}Displays in paragraphs}{212}{section.24.2}
\contentsline {section}{\numberline {24.3}Vertical material around displays}{212}{section.24.3}
\contentsline {section}{\numberline {24.4}Glue setting of the display math list}{213}{section.24.4}
\contentsline {section}{\numberline {24.5}Centring the display formula: displacement}{213}{section.24.5}
\contentsline {section}{\numberline {24.6}Equation numbers}{213}{section.24.6}
\contentsline {subsection}{\numberline {24.6.1}Ordinary equation numbers}{214}{subsection.24.6.1}
\contentsline {subsection}{\numberline {24.6.2}The equation number on a separate line}{214}{subsection.24.6.2}
\contentsline {section}{\numberline {24.7}Non-centred displays}{214}{section.24.7}
\contentsline {chapter}{\numberline {25}Alignment}{217}{chapter.25}
\contentsline {section}{\numberline {25.1}Introduction}{217}{section.25.1}
\contentsline {section}{\numberline {25.2}Horizontal and vertical alignment}{217}{section.25.2}
\contentsline {subsection}{\numberline {25.2.1}Horizontal alignments: {\tt \char `\\halign}}{218}{subsection.25.2.1}
\contentsline {subsection}{\numberline {25.2.2}Vertical alignments: {\tt \char `\\valign}}{218}{subsection.25.2.2}
\contentsline {subsection}{\numberline {25.2.3}Material between the lines: {\tt \char `\\noalign}}{218}{subsection.25.2.3}
\contentsline {subsection}{\numberline {25.2.4}Size of the alignment}{219}{subsection.25.2.4}
\contentsline {section}{\numberline {25.3}The preamble}{219}{section.25.3}
\contentsline {subsection}{\numberline {25.3.1}Infinite preambles}{219}{subsection.25.3.1}
\contentsline {subsection}{\numberline {25.3.2}Brace counting in preambles}{220}{subsection.25.3.2}
\contentsline {subsection}{\numberline {25.3.3}Expansion in the preamble}{220}{subsection.25.3.3}
\contentsline {subsection}{\numberline {25.3.4}{\tt \char `\\tabskip}}{220}{subsection.25.3.4}
\contentsline {section}{\numberline {25.4}The alignment}{221}{section.25.4}
\contentsline {subsection}{\numberline {25.4.1}Reading an entry}{221}{subsection.25.4.1}
\contentsline {subsection}{\numberline {25.4.2}Alternate specifications: {\tt \char `\\omit}}{221}{subsection.25.4.2}
\contentsline {subsection}{\numberline {25.4.3}Spanning across multiple columns: {\tt \char `\\span}}{222}{subsection.25.4.3}
\contentsline {subsection}{\numberline {25.4.4}Rules in alignments}{222}{subsection.25.4.4}
\contentsline {subsection}{\numberline {25.4.5}End of a line: {\tt \char `\\cr} and {\tt \char `\\crcr}}{223}{subsection.25.4.5}
\contentsline {section}{\numberline {25.5}Example: math alignments}{224}{section.25.5}
\contentsline {chapter}{\numberline {26}Page Shape}{225}{chapter.26}
\contentsline {section}{\numberline {26.1}The reference point for global positioning}{225}{section.26.1}
\contentsline {section}{\numberline {26.2}\cs {topskip}}{225}{section.26.2}
\contentsline {section}{\numberline {26.3}Page height and depth}{226}{section.26.3}
\contentsline {chapter}{\numberline {27}Page Breaking}{227}{chapter.27}
\contentsline {section}{\numberline {27.1}The current page and the recent contributions}{228}{section.27.1}
\contentsline {section}{\numberline {27.2}Activating the page builder}{228}{section.27.2}
\contentsline {section}{\numberline {27.3}Page length bookkeeping}{228}{section.27.3}
\contentsline {section}{\numberline {27.4}Breakpoints}{229}{section.27.4}
\contentsline {subsection}{\numberline {27.4.1}Possible breakpoints}{229}{subsection.27.4.1}
\contentsline {subsection}{\numberline {27.4.2}Breakpoint penalties}{229}{subsection.27.4.2}
\contentsline {subsection}{\numberline {27.4.3}Breakpoint computation}{230}{subsection.27.4.3}
\contentsline {section}{\numberline {27.5}\cs {vsplit}}{231}{section.27.5}
\contentsline {section}{\numberline {27.6}Examples of page breaking}{232}{section.27.6}
\contentsline {subsection}{\numberline {27.6.1}Filling up a page}{232}{subsection.27.6.1}
\contentsline {subsection}{\numberline {27.6.2}Determining the breakpoint}{232}{subsection.27.6.2}
\contentsline {subsection}{\numberline {27.6.3}The page builder after a paragraph}{233}{subsection.27.6.3}
\contentsline {chapter}{\numberline {28}Output Routines}{235}{chapter.28}
\contentsline {section}{\numberline {28.1}The \cs {output} token list}{235}{section.28.1}
\contentsline {section}{\numberline {28.2}Output and \cs {box255}}{236}{section.28.2}
\contentsline {section}{\numberline {28.3}Marks}{237}{section.28.3}
\contentsline {section}{\numberline {28.4}Assorted remarks}{238}{section.28.4}
\contentsline {subsection}{\numberline {28.4.1}Hazards in non-trivial output routines}{238}{subsection.28.4.1}
\contentsline {subsection}{\numberline {28.4.2}Page numbering}{238}{subsection.28.4.2}
\contentsline {subsection}{\numberline {28.4.3}Headlines and footlines in plain \textlatin {T\kern -.1667em\lower .5ex\hbox {E}\kern -.125emX\spacefactor \@m }}{238}{subsection.28.4.3}
\contentsline {subsection}{\numberline {28.4.4}Example: no widow lines}{238}{subsection.28.4.4}
\contentsline {subsection}{\numberline {28.4.5}Example: no indentation top of page}{239}{subsection.28.4.5}
\contentsline {subsection}{\numberline {28.4.6}More examples of output routines}{240}{subsection.28.4.6}
\contentsline {chapter}{\numberline {29}Insertions}{241}{chapter.29}
\contentsline {section}{\numberline {29.1}Insertion items}{241}{section.29.1}
\contentsline {section}{\numberline {29.2}Insertion class declaration}{242}{section.29.2}
\contentsline {section}{\numberline {29.3}Insertion parameters}{242}{section.29.3}
\contentsline {section}{\numberline {29.4}Moving insertion items from the contributions list}{243}{section.29.4}
\contentsline {section}{\numberline {29.5}Insertions in the output routine}{244}{section.29.5}
\contentsline {section}{\numberline {29.6}Plain \textlatin {T\kern -.1667em\lower .5ex\hbox {E}\kern -.125emX\spacefactor \@m }\ insertions}{244}{section.29.6}
\contentsline {chapter}{\numberline {30}File Input and Output}{245}{chapter.30}
\contentsline {section}{\numberline {30.1}Including files: \cs {input} and \cs {endinput}}{245}{section.30.1}
\contentsline {section}{\numberline {30.2}File I{/}O}{245}{section.30.2}
\contentsline {subsection}{\numberline {30.2.1}Opening and closing streams}{246}{subsection.30.2.1}
\contentsline {subsection}{\numberline {30.2.2}Input with {\tt \char `\\read}}{246}{subsection.30.2.2}
\contentsline {subsection}{\numberline {30.2.3}Output with {\tt \char `\\write}}{247}{subsection.30.2.3}
\contentsline {section}{\numberline {30.3}Whatsits}{247}{section.30.3}
\contentsline {section}{\numberline {30.4}Assorted remarks}{247}{section.30.4}
\contentsline {subsection}{\numberline {30.4.1}Inspecting input}{247}{subsection.30.4.1}
\contentsline {subsection}{\numberline {30.4.2}Testing for existence of files}{248}{subsection.30.4.2}
\contentsline {subsection}{\numberline {30.4.3}Timing problems}{248}{subsection.30.4.3}
\contentsline {subsection}{\numberline {30.4.4}{\tt \char `\\message} versus {\tt \char `\\immediate}{\tt \char `\\write}16}{248}{subsection.30.4.4}
\contentsline {subsection}{\numberline {30.4.5}Write inside a vertical box}{249}{subsection.30.4.5}
\contentsline {subsection}{\numberline {30.4.6}Expansion and spaces in {\tt \char `\\write} and {\tt \char `\\message}}{249}{subsection.30.4.6}
\contentsline {chapter}{\numberline {31}Allocation}{251}{chapter.31}
\contentsline {section}{\numberline {31.1}Allocation commands}{251}{section.31.1}
\contentsline {subsection}{\numberline {31.1.1}{\tt \char `\\count}, {\tt \char `\\dimen}, {\tt \char `\\skip}, {\tt \char `\\muskip}, {\tt \char `\\toks}}{252}{subsection.31.1.1}
\contentsline {subsection}{\numberline {31.1.2}{\tt \char `\\box}, {\tt \char `\\fam}, {\tt \char `\\write}, {\tt \char `\\read}, {\tt \char `\\insert}}{252}{subsection.31.1.2}
\contentsline {section}{\numberline {31.2}Ground rules for macro writers}{252}{section.31.2}
\contentsline {chapter}{\numberline {32}Running \textlatin {T\kern -.1667em\lower .5ex\hbox {E}\kern -.125emX\spacefactor \@m }}{255}{chapter.32}
\contentsline {section}{\numberline {32.1}Jobs}{255}{section.32.1}
\contentsline {subsection}{\numberline {32.1.1}Start of the job}{255}{subsection.32.1.1}
\contentsline {subsection}{\numberline {32.1.2}End of the job}{256}{subsection.32.1.2}
\contentsline {subsection}{\numberline {32.1.3}The log file}{256}{subsection.32.1.3}
\contentsline {section}{\numberline {32.2}Run modes}{256}{section.32.2}
\contentsline {chapter}{\numberline {33}\textlatin {T\kern -.1667em\lower .5ex\hbox {E}\kern -.125emX\spacefactor \@m }\ and the Outside World}{259}{chapter.33}
\contentsline {section}{\numberline {33.1}\textlatin {T\kern -.1667em\lower .5ex\hbox {E}\kern -.125emX\spacefactor \@m }, Ini\textlatin {T\kern -.1667em\lower .5ex\hbox {E}\kern -.125emX\spacefactor \@m }, Vir\textlatin {T\kern -.1667em\lower .5ex\hbox {E}\kern -.125emX\spacefactor \@m }}{259}{section.33.1}
\contentsline {subsection}{\numberline {33.1.1}Formats: loading}{259}{subsection.33.1.1}
\contentsline {subsection}{\numberline {33.1.2}Formats: dumping}{260}{subsection.33.1.2}
\contentsline {subsection}{\numberline {33.1.3}Formats: preloading}{260}{subsection.33.1.3}
\contentsline {subsection}{\numberline {33.1.4}The knowledge of Ini\textlatin {T\kern -.1667em\lower .5ex\hbox {E}\kern -.125emX\spacefactor \@m }}{260}{subsection.33.1.4}
\contentsline {subsection}{\numberline {33.1.5}Memory sizes of \textlatin {T\kern -.1667em\lower .5ex\hbox {E}\kern -.125emX\spacefactor \@m }\ and Ini\textlatin {T\kern -.1667em\lower .5ex\hbox {E}\kern -.125emX\spacefactor \@m }}{261}{subsection.33.1.5}
\contentsline {section}{\numberline {33.2}More about formats}{261}{section.33.2}
\contentsline {subsection}{\numberline {33.2.1}Compatibility}{261}{subsection.33.2.1}
\contentsline {subsection}{\numberline {33.2.2}Preloaded fonts}{261}{subsection.33.2.2}
\contentsline {subsection}{\numberline {33.2.3}The plain format}{262}{subsection.33.2.3}
\contentsline {subsection}{\numberline {33.2.4}The \textlatin {\LaTeX }\ format}{262}{subsection.33.2.4}
\contentsline {subsection}{\numberline {33.2.5}Mathematical formats}{262}{subsection.33.2.5}
\contentsline {subsection}{\numberline {33.2.6}Other formats}{262}{subsection.33.2.6}
\contentsline {section}{\numberline {33.3}The {\tt dvi} file}{263}{section.33.3}
\contentsline {subsection}{\numberline {33.3.1}The {\tt dvi} file format}{263}{subsection.33.3.1}
\contentsline {subsection}{\numberline {33.3.2}Page identification}{263}{subsection.33.3.2}
\contentsline {subsection}{\numberline {33.3.3}Magnification }{263}{subsection.33.3.3}
\contentsline {section}{\numberline {33.4}Specials}{264}{section.33.4}
\contentsline {section}{\numberline {33.5}Time}{264}{section.33.5}
\contentsline {section}{\numberline {33.6}Fonts}{264}{section.33.6}
\contentsline {subsection}{\numberline {33.6.1}Font metrics}{264}{subsection.33.6.1}
\contentsline {subsection}{\numberline {33.6.2}Virtual fonts}{265}{subsection.33.6.2}
\contentsline {subsection}{\numberline {33.6.3}Font files}{265}{subsection.33.6.3}
\contentsline {subsection}{\numberline {33.6.4}Computer Modern}{266}{subsection.33.6.4}
\contentsline {section}{\numberline {33.7}\textlatin {T\kern -.1667em\lower .5ex\hbox {E}\kern -.125emX\spacefactor \@m }\ and web}{266}{section.33.7}
\contentsline {section}{\numberline {33.8}The \textlatin {T\kern -.1667em\lower .5ex\hbox {E}\kern -.125emX\spacefactor \@m }\ Users Group}{267}{section.33.8}
\contentsline {chapter}{\numberline {34}Tracing}{269}{chapter.34}
\contentsline {section}{\numberline {34.1}Meaning and content: \cs {show}, \cs {showthe}, \cs {meaning}}{270}{section.34.1}
\contentsline {section}{\numberline {34.2}Show boxes: \cs {showbox}, \cs {tracingoutput}}{270}{section.34.2}
\contentsline {section}{\numberline {34.3}Global statistics}{272}{section.34.3}
\contentsline {chapter}{\numberline {35}Errors, Catastrophes, and Help}{275}{chapter.35}
\contentsline {section}{\numberline {35.1}Error messages}{275}{section.35.1}
\contentsline {section}{\numberline {35.2}Overflow errors}{276}{section.35.2}
\contentsline {subsection}{\numberline {35.2.1}Buffer size {\rm (500)}}{276}{subsection.35.2.1}
\contentsline {subsection}{\numberline {35.2.2}Exception dictionary {\rm (307)}}{276}{subsection.35.2.2}
\contentsline {subsection}{\numberline {35.2.3}Font memory (20$\,$000)}{276}{subsection.35.2.3}
\contentsline {subsection}{\numberline {35.2.4}Grouping levels}{277}{subsection.35.2.4}
\contentsline {subsection}{\numberline {35.2.5}Hash size {\rm (2100)}}{277}{subsection.35.2.5}
\contentsline {subsection}{\numberline {35.2.6}Number of strings {\rm (3000)}}{277}{subsection.35.2.6}
\contentsline {subsection}{\numberline {35.2.7}Input stack size {\rm (200)}}{277}{subsection.35.2.7}
\contentsline {subsection}{\numberline {35.2.8}Main memory size (30$\,$000)}{277}{subsection.35.2.8}
\contentsline {subsection}{\numberline {35.2.9}Parameter stack size {\rm (60)}}{277}{subsection.35.2.9}
\contentsline {subsection}{\numberline {35.2.10}Pattern memory {\rm (8000)}}{278}{subsection.35.2.10}
\contentsline {subsection}{\numberline {35.2.11}Pattern memory ops per language}{278}{subsection.35.2.11}
\contentsline {subsection}{\numberline {35.2.12}Pool size (32$\,$000)}{278}{subsection.35.2.12}
\contentsline {subsection}{\numberline {35.2.13}Save size {\rm (600)}}{278}{subsection.35.2.13}
\contentsline {subsection}{\numberline {35.2.14}Semantic nest size {\rm (40)}}{278}{subsection.35.2.14}
\contentsline {subsection}{\numberline {35.2.15}Text input levels {\rm (6)}}{278}{subsection.35.2.15}
\contentsline {chapter}{\numberline {36}The Grammar of \textlatin {T\kern -.1667em\lower .5ex\hbox {E}\kern -.125emX\spacefactor \@m }}{279}{chapter.36}
\contentsline {section}{\numberline {36.1}Notations}{279}{section.36.1}
\contentsline {section}{\numberline {36.2}Keywords}{280}{section.36.2}
\contentsline {section}{\numberline {36.3}Specific grammatical terms}{280}{section.36.3}
\contentsline {subsection}{\numberline {36.3.1}$\delimiter "426830A $equals$\delimiter "526930B $}{280}{subsection.36.3.1}
\contentsline {subsection}{\numberline {36.3.2}$\delimiter "426830A $filler$\delimiter "526930B $, $\delimiter "426830A $general text$\delimiter "526930B $}{280}{subsection.36.3.2}
\contentsline {subsection}{\numberline {36.3.3}{\tt \char `\{}{\tt \char `\}}\ and $\delimiter "426830A $left brace$\delimiter "526930B $$\delimiter "426830A $right brace$\delimiter "526930B $}{281}{subsection.36.3.3}
\contentsline {subsection}{\numberline {36.3.4}$\delimiter "426830A $math field$\delimiter "526930B $}{281}{subsection.36.3.4}
\contentsline {section}{\numberline {36.4}Differences between \textlatin {T\kern -.1667em\lower .5ex\hbox {E}\kern -.125emX\spacefactor \@m }\ versions 2 and 3}{281}{section.36.4}
\contentsline {chapter}{\numberline {37}Glossary of \textlatin {T\kern -.1667em\lower .5ex\hbox {E}\kern -.125emX\spacefactor \@m }\ Primitives}{283}{chapter.37}
\contentsline {chapter}{\numberline {38}Tables}{297}{chapter.38}
\contentsline {section}{\numberline {38.1}Character tables}{298}{section.38.1}
\contentsline {section}{\numberline {38.2} Computer modern fonts}{300}{section.38.2}
\contentsline {section}{\numberline {38.3}Plain \textlatin {T\kern -.1667em\lower .5ex\hbox {E}\kern -.125emX\spacefactor \@m }\ math symbols}{305}{section.38.3}
\contentsline {subsection}{\numberline {38.3.1} Mathcharacter codes}{305}{subsection.38.3.1}
\contentsline {subsection}{\numberline {38.3.2} Delimiter codes}{306}{subsection.38.3.2}
\contentsline {subsection}{\numberline {38.3.3} $\delimiter "426830A $mathchardef tokens$\delimiter "526930B $: ordinary symbols}{307}{subsection.38.3.3}
\contentsline {subsection}{\numberline {38.3.4} $\delimiter "426830A $mathchardef tokens$\delimiter "526930B $: large operators}{308}{subsection.38.3.4}
\contentsline {subsection}{\numberline {38.3.5} $\delimiter "426830A $mathchardef tokens$\delimiter "526930B $: binary operations}{309}{subsection.38.3.5}
\contentsline {subsection}{\numberline {38.3.6} $\delimiter "426830A $mathchardef tokens$\delimiter "526930B $: relations}{310}{subsection.38.3.6}
\contentsline {subsection}{\numberline {38.3.7}\cs {delimiter} macros}{311}{subsection.38.3.7}
\contentsline {chapter}{\numberline {39}Index}{313}{chapter.39}
\contentsline {section}{Bibliography}{317}{section*.4}
